…
*Hint:* This is one of those times when you should think about the
cleanliness of your analysis. I added a single code chunk for you below,
but do you want to use more than one? Would you like to write more
comments outside of the code chunk?

<!-------------------------- Start your work below ---------------------------->

``` r
### EXPLORE HERE ###
steam_games
```

    ## # A tibble: 40,833 × 21
    ##       id url         types name  desc_…¹ recen…² all_r…³ relea…⁴ devel…⁵ publi…⁶
    ##    <dbl> <chr>       <chr> <chr> <chr>   <chr>   <chr>   <chr>   <chr>   <chr>  
    ##  1     1 https://st… app   DOOM  Now in… Very P… Very P… May 12… id Sof… Bethes…
    ##  2     2 https://st… app   PLAY… PLAYER… Mixed,… Mixed,… Dec 21… PUBG C… PUBG C…
    ##  3     3 https://st… app   BATT… Take c… Mixed,… Mostly… Apr 24… Harebr… Parado…
    ##  4     4 https://st… app   DayZ  The po… Mixed,… Mixed,… Dec 13… Bohemi… Bohemi…
    ##  5     5 https://st… app   EVE … EVE On… Mixed,… Mostly… May 6,… CCP     CCP,CCP
    ##  6     6 https://st… bund… Gran… Grand … NaN     NaN     NaN     Rockst… Rockst…
    ##  7     7 https://st… app   Devi… The ul… Very P… Very P… Mar 7,… CAPCOM… CAPCOM…
    ##  8     8 https://st… app   Huma… Human:… Very P… Very P… Jul 22… No Bra… Curve …
    ##  9     9 https://st… app   They… They A… Very P… Very P… Dec 12… Numant… Numant…
    ## 10    10 https://st… app   Warh… In a w… <NA>    Mixed,… May 31… Eko So… Bigben…
    ## # … with 40,823 more rows, 11 more variables: popular_tags <chr>,
    ## #   game_details <chr>, languages <chr>, achievements <dbl>, genre <chr>,
    ## #   game_description <chr>, mature_content <chr>, minimum_requirements <chr>,
    ## #   recommended_requirements <chr>, original_price <dbl>, discount_price <dbl>,
    ## #   and abbreviated variable names ¹​desc_snippet, ²​recent_reviews,
    ## #   ³​all_reviews, ⁴​release_date, ⁵​developer, ⁶​publisher
…
    ## [1] 40833    21

``` r
class(steam_games)
```

    ## [1] "spec_tbl_df" "tbl_df"      "tbl"         "data.frame"

``` r
cancer_sample
```

    ## # A tibble: 569 × 32
    ##          ID diagnosis radius_m…¹ textu…² perim…³ area_…⁴ smoot…⁵ compa…⁶ conca…⁷
    ##       <dbl> <chr>          <dbl>   <dbl>   <dbl>   <dbl>   <dbl>   <dbl>   <dbl>
    ##  1   842302 M               18.0    10.4   123.    1001   0.118   0.278   0.300 
    ##  2   842517 M               20.6    17.8   133.    1326   0.0847  0.0786  0.0869
    ##  3 84300903 M               19.7    21.2   130     1203   0.110   0.160   0.197 
    ##  4 84348301 M               11.4    20.4    77.6    386.  0.142   0.284   0.241 
    ##  5 84358402 M               20.3    14.3   135.    1297   0.100   0.133   0.198 
    ##  6   843786 M               12.4    15.7    82.6    477.  0.128   0.17    0.158 
    ##  7   844359 M               18.2    20.0   120.    1040   0.0946  0.109   0.113 
    ##  8 84458202 M               13.7    20.8    90.2    578.  0.119   0.164   0.0937
    ##  9   844981 M               13      21.8    87.5    520.  0.127   0.193   0.186 
    ## 10 84501001 M               12.5    24.0    84.0    476.  0.119   0.240   0.227 
    ## # … with 559 more rows, 23 more variables: concave_points_mean <dbl>,
    ## #   symmetry_mean <dbl>, fractal_dimension_mean <dbl>, radius_se <dbl>,
    ## #   texture_se <dbl>, perimeter_se <dbl>, area_se <dbl>, smoothness_se <dbl>,
    ## #   compactness_se <dbl>, concavity_se <dbl>, concave_points_se <dbl>,
    ## #   symmetry_se <dbl>, fractal_dimension_se <dbl>, radius_worst <dbl>,
    ## #   texture_worst <dbl>, perimeter_worst <dbl>, area_worst <dbl>,
    ## #   smoothness_worst <dbl>, compactness_worst <dbl>, concavity_worst <dbl>, …
…
    ## [1] 569  32

``` r
class(cancer_sample)
```

    ## [1] "spec_tbl_df" "tbl_df"      "tbl"         "data.frame"

``` r
flow_sample
```

    ## # A tibble: 218 × 7
    ##    station_id  year extreme_type month   day  flow sym  
    ##    <chr>      <dbl> <chr>        <dbl> <dbl> <dbl> <chr>
    ##  1 05BB001     1909 maximum          7     7   314 <NA> 
    ##  2 05BB001     1910 maximum          6    12   230 <NA> 
    ##  3 05BB001     1911 maximum          6    14   264 <NA> 
    ##  4 05BB001     1912 maximum          8    25   174 <NA> 
    ##  5 05BB001     1913 maximum          6    11   232 <NA> 
    ##  6 05BB001     1914 maximum          6    18   214 <NA> 
    ##  7 05BB001     1915 maximum          6    27   236 <NA> 
    ##  8 05BB001     1916 maximum          6    20   309 <NA> 
    ##  9 05BB001     1917 maximum          6    17   174 <NA> 
    ## 10 05BB001     1918 maximum          6    15   345 <NA> 
    ## # … with 208 more rows
…
    ## [1] 218   7

``` r
class(flow_sample)
```

    ## [1] "tbl_df"     "tbl"        "data.frame"

``` r
vancouver_trees
```

    ## # A tibble: 146,611 × 20
    ##    tree_id civic_number std_st…¹ genus…² speci…³ culti…⁴ commo…⁵ assig…⁶ root_…⁷
    ##      <dbl>        <dbl> <chr>    <chr>   <chr>   <chr>   <chr>   <chr>   <chr>  
    ##  1  149556          494 W 58TH … ULMUS   AMERIC… BRANDON BRANDO… N       N      
    ##  2  149563          450 W 58TH … ZELKOVA SERRATA <NA>    JAPANE… N       N      
    ##  3  149579         4994 WINDSOR… STYRAX  JAPONI… <NA>    JAPANE… N       N      
    ##  4  149590          858 E 39TH … FRAXIN… AMERIC… AUTUMN… AUTUMN… Y       N      
    ##  5  149604         5032 WINDSOR… ACER    CAMPES… <NA>    HEDGE … N       N      
    ##  6  149616          585 W 61ST … PYRUS   CALLER… CHANTI… CHANTI… N       N      
    ##  7  149617         4909 SHERBRO… ACER    PLATAN… COLUMN… COLUMN… N       N      
    ##  8  149618         4925 SHERBRO… ACER    PLATAN… COLUMN… COLUMN… N       N      
    ##  9  149619         4969 SHERBRO… ACER    PLATAN… COLUMN… COLUMN… N       N      
    ## 10  149625          720 E 39TH … FRAXIN… AMERIC… AUTUMN… AUTUMN… N       N      
    ## # … with 146,601 more rows, 11 more variables: plant_area <chr>,
    ## #   on_street_block <dbl>, on_street <chr>, neighbourhood_name <chr>,
    ## #   street_side_name <chr>, height_range_id <dbl>, diameter <dbl>, curb <chr>,
    ## #   date_planted <date>, longitude <dbl>, latitude <dbl>, and abbreviated
    ## #   variable names ¹​std_street, ²​genus_name, ³​species_name, ⁴​cultivar_name,
    ## #   ⁵​common_name, ⁶​assigned, ⁷​root_barrier
…
``` r
#I chose to explore the relationship between two variables in a plot because my dataset contains numeric as well as categorical variables, and I was curious whether the average original price of an Action game is more or less expensive than the average original price of an Indie game. This plot provided me with the answer. It shows that Action games are on average almost twice as expensive as Indie games. 
```

5.  

``` r
steam_games %>% 
  filter(genre %in% c("Action", "Strategy"))
```

    ## # A tibble: 3,398 × 21
    ##       id url         types name  desc_…¹ recen…² all_r…³ relea…⁴ devel…⁵ publi…⁶
    ##    <dbl> <chr>       <chr> <chr> <chr>   <chr>   <chr>   <chr>   <chr>   <chr>  
    ##  1     1 https://st… app   DOOM  Now in… Very P… Very P… May 12… id Sof… Bethes…
    ##  2     7 https://st… app   Devi… The ul… Very P… Very P… Mar 7,… CAPCOM… CAPCOM…
    ##  3    14 https://st… app   Call… One of… Mixed,… Mixed,… Jul 27… Raven … Activi…
    ##  4    18 https://st… app   GOD … Set in… Mostly… Mostly… Feb 7,… BANDAI… BANDAI…
    ##  5    20 https://st… app   Halo… Halo W… Very P… Very P… Apr 20… Ensemb… Xbox G…
    ##  6    21 https://st… app   Call… The bi… Mixed,… Very P… Nov 9,… Treyar… Activi…
    ##  7    27 https://st… app   Port… Portal… Overwh… Overwh… Oct 10… Valve   Valve,…
    ##  8    36 https://st… app   Star… Join t… Very P… Very P… Nov 1,… Pandem… Lucasf…
    ##  9    40 https://st… sub   Doom… Doom C… NaN     NaN     NaN     id Sof… id Sof…
    ## 10    41 https://st… app   Warh… Comman… Mixed,… 7 user… Feb 28… Relic … SEGA,F…
    ## # … with 3,388 more rows, 11 more variables: popular_tags <chr>,
    ## #   game_details <chr>, languages <chr>, achievements <dbl>, genre <chr>,
    ## #   game_description <chr>, mature_content <chr>, minimum_requirements <chr>,
    ## #   recommended_requirements <chr>, original_price <dbl>, discount_price <dbl>,
    ## #   and abbreviated variable names ¹​desc_snippet, ²​recent_reviews,
    ## #   ³​all_reviews, ⁴​release_date, ⁵​developer, ⁶​publisher
…
1.  

``` r
mean(steam_games$original_price,na.rm=TRUE)
```

    ## [1] 53.05402

``` r
steam_games %>%
  group_by(genre) %>%
  summarise(genre_price_mean = mean(original_price, na.rm = TRUE))
```

    ## # A tibble: 1,769 × 2
    ##    genre                                                                 genre…¹
    ##    <chr>                                                                   <dbl>
    ##  1 Accounting                                                              47.5 
    ##  2 Accounting,Animation & Modeling,Audio Production,Design & Illustrati…   20.0 
    ##  3 Accounting,Animation & Modeling,Audio Production,Design & Illustrati…    5.00
    ##  4 Accounting,Education,Software Training,Utilities,Early Access            0   
    ##  5 Action                                                                  11.0 
    ##  6 Action,Adventure                                                        13.8 
    ##  7 Action,Adventure,Casual                                                 41.5 
    ##  8 Action,Adventure,Casual,Early Access                                    15.0 
    ##  9 Action,Adventure,Casual,Free to Play                                     4.99
    ## 10 Action,Adventure,Casual,Free to Play,Early Access                        0   
    ## # … with 1,759 more rows, and abbreviated variable name ¹​genre_price_mean
…
    ## Warning in max(x): no non-missing arguments to max; returning -Inf

    ## Warning in min(x): no non-missing arguments to min; returning Inf

    ## Warning in max(x): no non-missing arguments to max; returning -Inf

    ## Warning in min(x): no non-missing arguments to min; returning Inf

    ## Warning in max(x): no non-missing arguments to max; returning -Inf

    ## `summarise()` has grouped output by 'genre'. You can override using the
    ## `.groups` argument.

    ## # A tibble: 3,538 × 2
    ## # Groups:   genre [1,769]
    ##    genre                                                                 genre…¹
    ##    <chr>                                                                   <dbl>
    ##  1 Accounting                                                              15.0 
    ##  2 Accounting                                                              80.0 
    ##  3 Accounting,Animation & Modeling,Audio Production,Design & Illustrati…   20.0 
    ##  4 Accounting,Animation & Modeling,Audio Production,Design & Illustrati…   20.0 
    ##  5 Accounting,Animation & Modeling,Audio Production,Design & Illustrati…    0   
    ##  6 Accounting,Animation & Modeling,Audio Production,Design & Illustrati…    9.99
    ##  7 Accounting,Education,Software Training,Utilities,Early Access            0   
    ##  8 Accounting,Education,Software Training,Utilities,Early Access            0   
    ##  9 Action                                                                   0   
    ## 10 Action                                                                 625.  
    ## # … with 3,528 more rows, and abbreviated variable name ¹​genre_price_range
``` r
#Calculating the range of the original price of the games across the genre provides me with interesting information related to my research question, but it does not directly help me answer my research question. 

median(steam_games$original_price,na.rm=TRUE)
```

    ## [1] 4.99

``` r
steam_games %>%
  group_by(genre) %>%
  summarise(genre_price_median = median(original_price, na.rm = TRUE))
```

    ## # A tibble: 1,769 × 2
    ##    genre                                                                 genre…¹
    ##    <chr>                                                                   <dbl>
    ##  1 Accounting                                                              47.5 
    ##  2 Accounting,Animation & Modeling,Audio Production,Design & Illustrati…   20.0 
    ##  3 Accounting,Animation & Modeling,Audio Production,Design & Illustrati…    5.00
    ##  4 Accounting,Education,Software Training,Utilities,Early Access            0   
    ##  5 Action                                                                   4.99
    ##  6 Action,Adventure                                                         6.99
    ##  7 Action,Adventure,Casual                                                  4.99
    ##  8 Action,Adventure,Casual,Early Access                                    15.0 
    ##  9 Action,Adventure,Casual,Free to Play                                     4.99
    ## 10 Action,Adventure,Casual,Free to Play,Early Access                        0   
    ## # … with 1,759 more rows, and abbreviated variable name ¹​genre_price_median
``` r
#Calculating the median of the original price of the games across the genre provides me with interesting information related to my research question, but it does not directly help me answer my research question. 

sd(steam_games$original_price,na.rm=TRUE)
```

    ## [1] 5193.76

``` r
steam_games %>%
  group_by(genre) %>%
  summarise(genre_price_sd = sd(original_price, na.rm = TRUE))
```

    ## # A tibble: 1,769 × 2
    ##    genre                                                                 genre…¹
    ##    <chr>                                                                   <dbl>
    ##  1 Accounting                                                              46.0 
    ##  2 Accounting,Animation & Modeling,Audio Production,Design & Illustrati…   NA   
    ##  3 Accounting,Animation & Modeling,Audio Production,Design & Illustrati…    7.06
    ##  4 Accounting,Education,Software Training,Utilities,Early Access           NA   
    ##  5 Action                                                                  34.3 
    ##  6 Action,Adventure                                                        21.8 
    ##  7 Action,Adventure,Casual                                                142.  
    ##  8 Action,Adventure,Casual,Early Access                                    NA   
    ##  9 Action,Adventure,Casual,Free to Play                                    NA   
    ## 10 Action,Adventure,Casual,Free to Play,Early Access                       NA   
    ## # … with 1,759 more rows, and abbreviated variable name ¹​genre_price_sd
…
1.  

``` r
mean(steam_games$achievements,na.rm=TRUE)
```

    ## [1] 77.23749

``` r
steam_games %>%
  group_by(genre) %>%
  summarise(genre_achievements_mean = mean(achievements, na.rm = TRUE))
```

    ## # A tibble: 1,769 × 2
    ##    genre                                                                 genre…¹
    ##    <chr>                                                                   <dbl>
    ##  1 Accounting                                                              NaN  
    ##  2 Accounting,Animation & Modeling,Audio Production,Design & Illustrati…   NaN  
    ##  3 Accounting,Animation & Modeling,Audio Production,Design & Illustrati…   NaN  
    ##  4 Accounting,Education,Software Training,Utilities,Early Access           NaN  
    ##  5 Action                                                                   47.9
    ##  6 Action,Adventure                                                         40.3
    ##  7 Action,Adventure,Casual                                                  42  
    ##  8 Action,Adventure,Casual,Early Access                                     22  
    ##  9 Action,Adventure,Casual,Free to Play                                    NaN  
    ## 10 Action,Adventure,Casual,Free to Play,Early Access                       NaN  
    ## # … with 1,759 more rows, and abbreviated variable name
    ## #   ¹​genre_achievements_mean
…
    ## Warning in max(x): no non-missing arguments to max; returning -Inf

    ## Warning in min(x): no non-missing arguments to min; returning Inf

    ## Warning in max(x): no non-missing arguments to max; returning -Inf

    ## Warning in min(x): no non-missing arguments to min; returning Inf

    ## Warning in max(x): no non-missing arguments to max; returning -Inf

    ## `summarise()` has grouped output by 'genre'. You can override using the
    ## `.groups` argument.

    ## # A tibble: 3,538 × 2
    ## # Groups:   genre [1,769]
    ##    genre                                                                 genre…¹
    ##    <chr>                                                                   <dbl>
    ##  1 Accounting                                                                Inf
    ##  2 Accounting                                                               -Inf
    ##  3 Accounting,Animation & Modeling,Audio Production,Design & Illustrati…     Inf
    ##  4 Accounting,Animation & Modeling,Audio Production,Design & Illustrati…    -Inf
    ##  5 Accounting,Animation & Modeling,Audio Production,Design & Illustrati…     Inf
    ##  6 Accounting,Animation & Modeling,Audio Production,Design & Illustrati…    -Inf
    ##  7 Accounting,Education,Software Training,Utilities,Early Access             Inf
    ##  8 Accounting,Education,Software Training,Utilities,Early Access            -Inf
    ##  9 Action                                                                      1
    ## 10 Action                                                                   3000
    ## # … with 3,528 more rows, and abbreviated variable name
    ## #   ¹​genre_achievements_range
``` r
#Calculating the range of the achievements across genres provides me with interesting information related to my research question, but it does not directly help me answer my research question. 

median(steam_games$achievements,na.rm=TRUE)
```

    ## [1] 21

``` r
steam_games %>%
  group_by(genre) %>%
  summarise(genre_achievements_median = median(achievements, na.rm = TRUE))
```

    ## # A tibble: 1,769 × 2
    ##    genre                                                                 genre…¹
    ##    <chr>                                                                   <dbl>
    ##  1 Accounting                                                               NA  
    ##  2 Accounting,Animation & Modeling,Audio Production,Design & Illustrati…    NA  
    ##  3 Accounting,Animation & Modeling,Audio Production,Design & Illustrati…    NA  
    ##  4 Accounting,Education,Software Training,Utilities,Early Access            NA  
    ##  5 Action                                                                   33  
    ##  6 Action,Adventure                                                         38.5
    ##  7 Action,Adventure,Casual                                                  20  
    ##  8 Action,Adventure,Casual,Early Access                                     22  
    ##  9 Action,Adventure,Casual,Free to Play                                     NA  
    ## 10 Action,Adventure,Casual,Free to Play,Early Access                        NA  
    ## # … with 1,759 more rows, and abbreviated variable name
    ## #   ¹​genre_achievements_median
…
